[gd_scene load_steps=7 format=2]

[ext_resource path="res://models/Porch_1.glb" type="PackedScene" id=1]

[sub_resource type="SpatialMaterial" id=1]
albedo_color = Color( 0.101961, 0.101961, 0.101961, 1 )

[sub_resource type="SpatialMaterial" id=2]
albedo_color = Color( 0.321569, 0.309804, 0.309804, 1 )

[sub_resource type="SpatialMaterial" id=3]
albedo_color = Color( 0.372549, 0.345098, 0.345098, 1 )

[sub_resource type="SpatialMaterial" id=4]
albedo_color = Color( 0.152941, 0.14902, 0.14902, 1 )

[sub_resource type="SpatialMaterial" id=5]
albedo_color = Color( 0, 0, 0, 1 )

[node name="Porch_1" instance=ExtResource( 1 )]

[node name="StreetCabin_9de510c9017eb4dcde936860cd61599b001" parent="." index="2"]
visible = false

[node name="couch" parent="." index="4"]
material/0 = SubResource( 1 )
material/1 = SubResource( 2 )

[node name="TV" parent="." index="7"]
material/0 = SubResource( 3 )
material/1 = SubResource( 4 )
material/2 = SubResource( 5 )
